\relax 
\providecommand\hyper@newdestlabel[2]{}
\@writefile{toc}{\contentsline {section}{\numberline {2}V+jets}{4}{section.2}}
\newlabel{sec:VJ}{{2}{4}{V+jets}{section.2}{}}
\@writefile{toc}{\contentsline {subsection}{\numberline {2.1}\textsc  {Sherpa}\xspace  MEPS@NLO}{4}{subsection.2.1}}
\@writefile{toc}{\contentsline {subsection}{\numberline {2.2}\textsc  {MadGraph5}\_a\textsc  {MC@NLO} using CKKW-L}{5}{subsection.2.2}}
\newlabel{ssec:vjetsmg5amcpy8}{{2.2}{5}{\textsc {MadGraph5}\_a\textsc {MC@NLO} using CKKW-L}{subsection.2.2}{}}
\@writefile{lot}{\contentsline {table}{\numberline {1}{\ignorespaces Samples with \textsc  {MadGraph5\_aMC@NLO}\xspace  +\textsc  {Pythia8}\xspace  using CKKW-L merging\relax }}{5}{table.caption.1}}
\providecommand*\caption@xref[2]{\@setref\relax\@undefined{#1}}
\newlabel{tab:mg5amcpy8ckkwl}{{1}{5}{Samples with \mgamc +\pythia using CKKW-L merging\relax }{table.caption.1}{}}
\@writefile{toc}{\contentsline {paragraph}{\nonumberline H}{5}{section*.2}}
\@writefile{toc}{\contentsline {paragraph}{\nonumberline N}{5}{section*.3}}
\@writefile{toc}{\contentsline {subsection}{\numberline {2.3}\textsc  {MadGraph5\_aMC@NLO}\xspace  using \textsc  {FxFx}\xspace  }{5}{subsection.2.3}}
\newlabel{sec:baseline-gens-mgfxfx}{{2.3}{5}{\mgamc using \fxfx }{subsection.2.3}{}}
\@writefile{lot}{\contentsline {table}{\numberline {2}{\ignorespaces Samples with \textsc  {MadGraph5\_aMC@NLO}\xspace  +\textsc  {Pythia8}\xspace  using CKKW-L merging\relax }}{5}{table.caption.4}}
\newlabel{tab:mg5amcpy8ckkwl}{{2}{5}{Samples with \mgamc +\pythia using CKKW-L merging\relax }{table.caption.4}{}}
\@writefile{toc}{\contentsline {subsection}{\numberline {2.4}\textsc  {Powheg MiNLO}\xspace  }{6}{subsection.2.4}}
\newlabel{sec:baseline-gens-minlo}{{2.4}{6}{\minlo }{subsection.2.4}{}}
\@writefile{toc}{\contentsline {subsection}{\numberline {2.5}\textsc  {Alpgen}\xspace  }{6}{subsection.2.5}}
\newlabel{sec:baseline-gens-alpgen}{{2.5}{6}{\alpgen }{subsection.2.5}{}}
\@setckpt{BJ}{
\setcounter{page}{8}
\setcounter{equation}{1}
\setcounter{enumi}{0}
\setcounter{enumii}{0}
\setcounter{enumiii}{0}
\setcounter{enumiv}{0}
\setcounter{footnote}{0}
\setcounter{mpfootnote}{0}
\setcounter{part}{0}
\setcounter{section}{2}
\setcounter{subsection}{5}
\setcounter{subsubsection}{0}
\setcounter{paragraph}{0}
\setcounter{subparagraph}{0}
\setcounter{figure}{0}
\setcounter{table}{2}
\setcounter{Item}{0}
\setcounter{Hfootnote}{0}
\setcounter{bookmark@seq@number}{10}
\setcounter{parentequation}{0}
\setcounter{linenumber}{159}
\setcounter{LN@truepage}{7}
\setcounter{ContinuedFloat}{0}
\setcounter{KVtest}{1}
\setcounter{subfigure}{0}
\setcounter{subfigure@save}{0}
\setcounter{lofdepth}{1}
\setcounter{subtable}{0}
\setcounter{subtable@save}{0}
\setcounter{lotdepth}{1}
\setcounter{tabx@nest}{0}
\setcounter{listtotal}{0}
\setcounter{listcount}{0}
\setcounter{liststart}{0}
\setcounter{liststop}{0}
\setcounter{citecount}{0}
\setcounter{citetotal}{0}
\setcounter{multicitecount}{0}
\setcounter{multicitetotal}{0}
\setcounter{instcount}{42}
\setcounter{maxnames}{3}
\setcounter{minnames}{1}
\setcounter{maxitems}{3}
\setcounter{minitems}{1}
\setcounter{citecounter}{0}
\setcounter{savedcitecounter}{0}
\setcounter{uniquelist}{0}
\setcounter{uniquename}{0}
\setcounter{refsection}{0}
\setcounter{refsegment}{0}
\setcounter{maxextrayear}{0}
\setcounter{maxextraalpha}{0}
\setcounter{abbrvpenalty}{50}
\setcounter{highnamepenalty}{50}
\setcounter{lownamepenalty}{25}
\setcounter{maxparens}{3}
\setcounter{parenlevel}{0}
\setcounter{mincomprange}{10}
\setcounter{maxcomprange}{100000}
\setcounter{mincompwidth}{1}
\setcounter{labelname}{0}
\setcounter{savedlabelname}{0}
\setcounter{author}{0}
\setcounter{savedauthor}{0}
\setcounter{shortauthor}{0}
\setcounter{savedshortauthor}{0}
\setcounter{editor}{0}
\setcounter{savededitor}{0}
\setcounter{editora}{0}
\setcounter{savededitora}{0}
\setcounter{editorb}{0}
\setcounter{savededitorb}{0}
\setcounter{editorc}{0}
\setcounter{savededitorc}{0}
\setcounter{shorteditor}{0}
\setcounter{savedshorteditor}{0}
\setcounter{bookauthor}{0}
\setcounter{savedbookauthor}{0}
\setcounter{translator}{0}
\setcounter{savedtranslator}{0}
\setcounter{annotator}{0}
\setcounter{savedannotator}{0}
\setcounter{commentator}{0}
\setcounter{savedcommentator}{0}
\setcounter{introduction}{0}
\setcounter{savedintroduction}{0}
\setcounter{foreword}{0}
\setcounter{savedforeword}{0}
\setcounter{afterword}{0}
\setcounter{savedafterword}{0}
\setcounter{holder}{0}
\setcounter{savedholder}{0}
\setcounter{namea}{0}
\setcounter{savednamea}{0}
\setcounter{nameb}{0}
\setcounter{savednameb}{0}
\setcounter{namec}{0}
\setcounter{savednamec}{0}
\setcounter{institution}{0}
\setcounter{savedinstitution}{0}
\setcounter{language}{0}
\setcounter{savedlanguage}{0}
\setcounter{location}{0}
\setcounter{savedlocation}{0}
\setcounter{organization}{0}
\setcounter{savedorganization}{0}
\setcounter{origlocation}{0}
\setcounter{savedoriglocation}{0}
\setcounter{origpublisher}{0}
\setcounter{savedorigpublisher}{0}
\setcounter{pageref}{0}
\setcounter{savedpageref}{0}
\setcounter{publisher}{0}
\setcounter{savedpublisher}{0}
\setcounter{lista}{0}
\setcounter{savedlista}{0}
\setcounter{listb}{0}
\setcounter{savedlistb}{0}
\setcounter{listc}{0}
\setcounter{savedlistc}{0}
\setcounter{listd}{0}
\setcounter{savedlistd}{0}
\setcounter{liste}{0}
\setcounter{savedliste}{0}
\setcounter{listf}{0}
\setcounter{savedlistf}{0}
\setcounter{textcitecount}{0}
\setcounter{textcitetotal}{0}
\setcounter{textcitemaxnames}{0}
\setcounter{biburlnumpenalty}{0}
\setcounter{biburlucpenalty}{0}
\setcounter{biburllcpenalty}{0}
\setcounter{smartand}{1}
\setcounter{bbx:relatedcount}{0}
\setcounter{bbx:relatedtotal}{0}
\setcounter{cbx@tempcnta}{0}
\setcounter{cbx@tempcntb}{34}
\setcounter{Maxaffil}{2}
\setcounter{authors}{1}
\setcounter{affil}{1}
\setcounter{section@level}{2}
}
