\relax 
\providecommand\hyper@newdestlabel[2]{}
\providecommand\HyperFirstAtBeginDocument{\AtBeginDocument}
\HyperFirstAtBeginDocument{\ifx\hyper@anchor\@undefined
\global\let\oldcontentsline\contentsline
\gdef\contentsline#1#2#3#4{\oldcontentsline{#1}{#2}{#3}}
\global\let\oldnewlabel\newlabel
\gdef\newlabel#1#2{\newlabelxx{#1}#2}
\gdef\newlabelxx#1#2#3#4#5#6{\oldnewlabel{#1}{{#2}{#3}}}
\AtEndDocument{\ifx\hyper@anchor\@undefined
\let\contentsline\oldcontentsline
\let\newlabel\oldnewlabel
\fi}
\fi}
\global\let\hyper@last\relax 
\gdef\HyperFirstAtBeginDocument#1{#1}
\providecommand\HyField@AuxAddToFields[1]{}
\providecommand\HyField@AuxAddToCoFields[2]{}
\bibstyle{biblatex}
\bibdata{PMGRefs-blx,PMGRefs,bibtex/bib/ATLAS}
\citation{biblatex-control}
\@writefile{toc}{\boolfalse {citerequest}\boolfalse {citetracker}\boolfalse {pagetracker}\boolfalse {backtracker}\relax }
\@writefile{lof}{\boolfalse {citerequest}\boolfalse {citetracker}\boolfalse {pagetracker}\boolfalse {backtracker}\relax }
\@writefile{lot}{\boolfalse {citerequest}\boolfalse {citetracker}\boolfalse {pagetracker}\boolfalse {backtracker}\relax }
\select@language{UKenglish}
\@writefile{toc}{\defcounter {refsection}{0}\relax }\@writefile{toc}{\select@language{UKenglish}}
\@writefile{lof}{\defcounter {refsection}{0}\relax }\@writefile{lof}{\select@language{UKenglish}}
\@writefile{lot}{\defcounter {refsection}{0}\relax }\@writefile{lot}{\select@language{UKenglish}}
\@input{MC.aux}
\citation{Gleisberg:2008ta}
\citation{Gleisberg:2008fv}
\citation{Schumann:2007mg}
\citation{Hoeche:2011fd}
\citation{Hoeche:2012yf}
\citation{Cascioli:2011va}
\citation{Denner:2016kdg}
\citation{Alwall:2014hca}
\citation{Sjostrand:2007gs}
\citation{Lonnblad:2001iq}
\citation{Lonnblad:2011xx}
\citation{ATL-PHYS-PUB-2014-021}
\citation{Ball:2012cx}
\citation{EvtGen}
\citation{Frederix:2012ps}
\@input{BJ.aux}
\citation{ATL-PHYS-PUB-2017-006}
\citation{Cacciari:2008gp}
\citation{Siegert:2016bre}
\citation{Frixione:1998jh}
\citation{Alwall:2014hca}
\citation{Sjostrand:2007gs}
\citation{Alwall:2014hca}
\citation{Sjostrand:2007gs}
\citation{Frederix:2012ps}
\citation{Frederix:2011ss}
\citation{Butterworth:2014efa}
\citation{Cacciari:2006sm}
\citation{Alioli:2010xd}
\citation{Hamilton:2012np}
\citation{Hamilton:2012rf}
\citation{Sjostrand:2007gs}
\citation{ATL-PHYS-PUB-2013-017}
\citation{EvtGen}
\citation{Golonka:2005pn}
\citation{Davidson:2010ew}
\citation{Dulat:2015mca}
\citation{Pumplin:2002vw}
\citation{Mangano:2002ea}
\citation{Sjostrand:2006za}
\citation{Skands:2010ak}
\citation{Pumplin:2002vw}
\citation{Alwall:2007fs}
\@input{MB.aux}
\citation{Lai:2010vv}
\citation{Ball:2014uwa}
\citation{Dulat:2015mca}
\citation{Harland-Lang:2014zoa}
\citation{Nason:2004rx}
\citation{Frixione:2007vw}
\citation{Alioli:2010xd}
\citation{Boos:2001cv}
\citation{Alwall:2006yp}
\citation{Sjostrand:2014zea}
\citation{Nakamura:2010zzi}
\citation{Groom:2000in}
\@input{TQ.aux}
\citation{Gleisberg:2008ta}
\citation{Alwall:2014hca}
\citation{Sjostrand:2014zea}
\citation{Frixione:2007nw}
\citation{Nason:2004rx}
\citation{Frixione:2007nw}
\citation{ATL-PHYS-PUB-2014-021}
\citation{ATL-PHYS-PUB-2016-020}
\citation{Gleisberg:2008ta}
\citation{ATL-PHYS-PUB-2016-020}
\citation{Hoeche:2012yf}
\citation{Cascioli:2011va}
\citation{Ball:2014uwa}
\citation{Hoeche:2009rj}
\citation{Schumann:2007mg}
\citation{ATL-PHYS-PUB-2014-021}
\citation{ATL-PHYS-PUB-2016-004}
\citation{ATL-PHYS-PUB-2016-020}
\citation{ATL-PHYS-PUB-2015-002}
\citation{ATL-PHYS-PUB-2016-004}
\citation{ATL-PHYS-PUB-2016-016}
\citation{ATL-PHYS-PUB-2016-020}
\citation{Buckley:2010ar}
\citation{Aaboud:2016xii}
\citation{Cacciari:2007fd}
\citation{Cacciari:2008gn}
\citation{PERF-2012-02}
\citation{antikt}
\citation{ATLAS-CONF-2016-040}
\citation{antikt}
\citation{TOPQ-2015-06}
\citation{antikt}
\@writefile{toc}{\contentsline {part}{Appendix}{14}{part*.9}}
